{
  "_meta": {
    "sources": [
      "loopback/common/models",
      "loopback/server/models",
      "../common/models",
      "./models"
    ],
    "mixins": [
      "loopback/common/mixins",
      "loopback/server/mixins",
      "../common/mixins",
      "./mixins"
    ]
  },
  "User": {
    "dataSource": "db"
  },
  "AccessToken": {
    "dataSource": "db",
    "public": false
  },
  "ACL": {
    "dataSource": "db",
    "public": false
  },
  "RoleMapping": {
    "dataSource": "db",
    "public": false,
    "options": {
      "strictObjectIDCoercion": true
    }
  },
  "Role": {
    "dataSource": "db",
    "public": false
  },
  "AuxLocalidad": {
    "dataSource": "adoLOCAL",
    "public": true,
    "$promise": {},
    "$resolved": true
  },
  "AuxPais": {
    "dataSource": "adoLOCAL",
    "public": true
  },
  "AuxProvincia": {
    "dataSource": "adoLOCAL",
    "public": true
  },
  "EntDevocional": {
    "dataSource": "adoLOCAL",
    "public": true
  },
  "EntTipoPedido": {
    "dataSource": "adoLOCAL",
    "public": true
  },
  "SysRol": {
    "dataSource": "adoLOCAL",
    "public": true
  },
  "EntPedido": {
    "dataSource": "adoLOCAL",
    "public": true
  },
  "SysUsuario": {
    "dataSource": "adoLOCAL",
    "public": true
  }
}
